{
  "current_page": 1,
  "data": [
    {
      "id": "74709d47-be8d-4afa-b301-9623d10e5b02",
      "type": "follow",
      "notifiable_type": "App\\Models\\User",
      "notifiable_id": "01jsn7h4d6zj3pmhy91wxk1whz",
      "data": {
        "follower": {
          "id": "01jsn7h4d6zj3pmhy91wxk1whz",
          "username": "uspinka"
        }
      },
      "read_at": null,
      "created_at": "2025-02-17T14:12:33.000000Z",
      "updated_at": "2025-02-17T14:12:33.000000Z"
    },
    {
      "id": "eddd2652-d7b2-45c3-8937-0fd5c6180fd2",
      "type": "follow",
      "notifiable_type": "App\\Models\\User",
      "notifiable_id": "01jsn7h4d6zj3pmhy91wxk1whz",
      "data": {
        "follower": {
          "id": "01jsn7h4d6zj3pmhy91wxk1whz",
          "username": "lemke.seth"
        }
      },
      "read_at": null,
      "created_at": "2025-02-17T14:12:33.000000Z",
      "updated_at": "2025-02-17T14:12:33.000000Z"
    },
    {
      "id": "2f8c921b-0700-4cff-903a-1276ac9b5330",
      "type": "artwork-like",
      "notifiable_type": "App\\Models\\User",
      "notifiable_id": "01jsn7h4d6zj3pmhy91wxk1whz",
      "data": {
        "liker": {
          "id": "01jsn7h4d6zj3pmhy91wxk1whz",
          "username": "hubert64"
        },
        "artwork": {
          "id": "01jsn7h4d6zj3pmhy91wxk1whz",
          "title": "Rem laborum vel."
        }
      },
      "read_at": null,
      "created_at": "2025-02-17T14:12:21.000000Z",
      "updated_at": "2025-02-17T14:12:21.000000Z"
    },
    {
      "id": "7af511d5-29c2-4912-9d6e-668b934e10c1",
      "type": "artwork-like",
      "notifiable_type": "App\\Models\\User",
      "notifiable_id": "01jsn7h4d6zj3pmhy91wxk1whz",
      "data": {
        "liker": {
          "id": "01jsn7h4d6zj3pmhy91wxk1whz",
          "username": "angus.robel"
        },
        "artwork": {
          "id": "01jsn7h4d6zj3pmhy91wxk1whz",
          "title": "Rem laborum vel."
        }
      },
      "read_at": null,
      "created_at": "2025-02-17T14:12:21.000000Z",
      "updated_at": "2025-02-17T14:12:21.000000Z"
    },
    {
      "id": "1f56b097-d207-4514-aa5c-fb1d064b01e8",
      "type": "artwork-comment",
      "notifiable_type": "App\\Models\\User",
      "notifiable_id": "01jsn7h4d6zj3pmhy91wxk1whz",
      "data": {
        "commenter": {
          "id": "01jsn7h4d6zj3pmhy91wxk1whz",
          "username": "wcollier"
        },
        "artwork": {
          "id": "01jsn7h4d6zj3pmhy91wxk1whz",
          "title": "Rem laborum vel."
        }
      },
      "read_at": null,
      "created_at": "2025-02-17T14:12:11.000000Z",
      "updated_at": "2025-02-17T14:12:11.000000Z"
    },
    {
      "id": "6cc99454-478e-4fbc-ba4a-ded3e3a79605",
      "type": "artwork-comment",
      "notifiable_type": "App\\Models\\User",
      "notifiable_id": "01jsn7h4d6zj3pmhy91wxk1whz",
      "data": {
        "commenter": {
          "id": "01jsn7h4d6zj3pmhy91wxk1whz",
          "username": "bcummerata"
        },
        "artwork": {
          "id": "01jsn7h4d6zj3pmhy91wxk1whz",
          "title": "Rem laborum vel."
        }
      },
      "read_at": null,
      "created_at": "2025-02-17T14:12:11.000000Z",
      "updated_at": "2025-02-17T14:12:11.000000Z"
    },
    {
      "id": "7792b926-1fdd-481d-ba29-f0520f46611d",
      "type": "artist-verification-response",
      "notifiable_type": "App\\Models\\User",
      "notifiable_id": "01jsn7h4d6zj3pmhy91wxk1whz",
      "data": {
        "id": "01jsn7h4d6zj3pmhy91wxk1whz",
        "status": "rejected",
        "reason": "Beatae perferendis quisquam voluptatem nobis atque. Consequatur ut dolorem corporis et. Atque asperiores dolore possimus."
      },
      "read_at": null,
      "created_at": "2025-02-17T14:12:35.000000Z",
      "updated_at": "2025-02-17T14:12:35.000000Z"
    }
  ],
  "first_page_url": "http://localhost:8000/api/v1/users/me/notifications?page=1",
  "from": 1,
  "last_page": 2,
  "last_page_url": "http://localhost:8000/api/v1/users/me/notifications?page=2",
  "links": [
    { "url": null, "label": "&laquo; Previous", "active": false },
    {
      "url": "http://localhost:8000/api/v1/users/me/notifications?page=1",
      "label": "1",
      "active": true
    },
    {
      "url": "http://localhost:8000/api/v1/users/me/notifications?page=2",
      "label": "2",
      "active": false
    },
    {
      "url": "http://localhost:8000/api/v1/users/me/notifications?page=2",
      "label": "Next &raquo;",
      "active": false
    }
  ],
  "next_page_url": "http://localhost:8000/api/v1/users/me/notifications?page=2",
  "path": "http://localhost:8000/api/v1/users/me/notifications",
  "per_page": 10,
  "prev_page_url": null,
  "to": 10,
  "total": 18
}
